\relax 
\providecommand\HyperFirstAtBeginDocument{\AtBeginDocument}
\HyperFirstAtBeginDocument{\ifx\hyper@anchor\@undefined
\global\let\oldcontentsline\contentsline
\gdef\contentsline#1#2#3#4{\oldcontentsline{#1}{#2}{#3}}
\global\let\oldnewlabel\newlabel
\gdef\newlabel#1#2{\newlabelxx{#1}#2}
\gdef\newlabelxx#1#2#3#4#5#6{\oldnewlabel{#1}{{#2}{#3}}}
\AtEndDocument{\ifx\hyper@anchor\@undefined
\let\contentsline\oldcontentsline
\let\newlabel\oldnewlabel
\fi}
\fi}
\global\let\hyper@last\relax 
\gdef\HyperFirstAtBeginDocument#1{#1}
\providecommand\HyField@AuxAddToFields[1]{}
\@writefile{toc}{\contentsline {section}{\numberline {1}Finding Square Roots and Quadratic Non-Residues}{1}{section.1}}
\@writefile{loa}{\contentsline {algocf}{\numberline {1}{\ignorespaces PPT algorithm to find square roots}}{1}{algocf.1}}
\newlabel{algo:roots}{{1}{1}{Finding Square Roots and Quadratic Non-Residues\relax }{algocf.1}{}}
\@writefile{loa}{\contentsline {algocf}{\numberline {2}{\ignorespaces PPT algorithm to output a unique quadratic non-residue}}{2}{algocf.2}}
\newlabel{algo:qnr}{{2}{2}{Finding Square Roots and Quadratic Non-Residues\relax }{algocf.2}{}}
\@writefile{toc}{\contentsline {section}{\numberline {2}Properties of generators}{2}{section.2}}
\@writefile{loa}{\contentsline {algocf}{\numberline {3}{\ignorespaces PPT algorithm to solve discrete log}}{3}{algocf.3}}
\newlabel{algo:dlog}{{3}{3}{Properties of generators\relax }{algocf.3}{}}
\@writefile{toc}{\contentsline {section}{\numberline {3}Jacobi symbol and Primality Testing}{3}{section.3}}
\@writefile{loa}{\contentsline {algocf}{\numberline {4}{\ignorespaces PPT algorithm to compute the Jacobi Symbol}}{3}{algocf.4}}
\newlabel{algo:jacobi}{{4}{3}{Jacobi symbol and Primality Testing\relax }{algocf.4}{}}
\newlabel{algo:jacobi2}{{5}{4}{Jacobi symbol and Primality Testing\relax }{algocfline.5}{}}
\@writefile{loa}{\contentsline {algocf}{\numberline {5}{\ignorespaces PPT algorithm to distinguish $N =p$ and $N=pq$}}{4}{algocf.5}}
\@writefile{toc}{\contentsline {section}{\numberline {4}Bit Security of RSA}{4}{section.4}}
\newlabel{algo:rsa}{{6}{5}{Bit Security of RSA\relax }{algocfline.6}{}}
\@writefile{toc}{\contentsline {section}{\numberline {5}Square Roots mod Composite $N$}{6}{section.5}}
