\relax 
\providecommand\HyperFirstAtBeginDocument{\AtBeginDocument}
\HyperFirstAtBeginDocument{\ifx\hyper@anchor\@undefined
\global\let\oldcontentsline\contentsline
\gdef\contentsline#1#2#3#4{\oldcontentsline{#1}{#2}{#3}}
\global\let\oldnewlabel\newlabel
\gdef\newlabel#1#2{\newlabelxx{#1}#2}
\gdef\newlabelxx#1#2#3#4#5#6{\oldnewlabel{#1}{{#2}{#3}}}
\AtEndDocument{\ifx\hyper@anchor\@undefined
\let\contentsline\oldcontentsline
\let\newlabel\oldnewlabel
\fi}
\fi}
\global\let\hyper@last\relax 
\gdef\HyperFirstAtBeginDocument#1{#1}
\providecommand\HyField@AuxAddToFields[1]{}
\@writefile{toc}{\contentsline {section}{\numberline {1}Encryption}{1}{section.1}}
\@writefile{toc}{\contentsline {section}{\numberline {2}The need for cryptographically strong PRG}{1}{section.2}}
\@writefile{toc}{\contentsline {section}{\numberline {3}Pseudorandomness}{2}{section.3}}
\@writefile{loa}{\contentsline {algocf}{\numberline {1}{\ignorespaces CSPRG $G'$}}{2}{algocf.1}}
\newlabel{algo:expansion}{{1}{2}{Pseudorandomness\relax }{algocf.1}{}}
\@writefile{loa}{\contentsline {algocf}{\numberline {2}{\ignorespaces Distinguisher $D'$ for $G$}}{3}{algocf.2}}
\newlabel{algo:disting_a}{{2}{3}{Pseudorandomness\relax }{algocf.2}{}}
\@writefile{loa}{\contentsline {algocf}{\numberline {3}{\ignorespaces Distinguisher for $G$}}{3}{algocf.3}}
\newlabel{algo:disting}{{3}{3}{Pseudorandomness\relax }{algocf.3}{}}
\@writefile{toc}{\contentsline {section}{\numberline {4}One-wayness does not hide individual bits}{4}{section.4}}
\@writefile{loa}{\contentsline {algocf}{\numberline {4}{\ignorespaces PPT algorithm to invert $f$ using $\mathcal  {A}$ }}{4}{algocf.4}}
\newlabel{algo:InvertF}{{4}{4}{One-wayness does not hide individual bits\relax }{algocf.4}{}}
\newlabel{eq:succesOWF}{{2}{4}{One-wayness does not hide individual bits\relax }{}{}}
\@writefile{toc}{\contentsline {section}{\numberline {5}LWE search to Decision reduction}{5}{section.5}}
\@writefile{loa}{\contentsline {algocf}{\numberline {5}{\ignorespaces PPT algorithm reducing LWE search to LWE decision}}{5}{algocf.5}}
\newlabel{algo:LWE}{{5}{5}{LWE search to Decision reduction\relax }{algocf.5}{}}
\@writefile{loa}{\contentsline {algocf}{\numberline {6}{\ignorespaces PPT algorithm reducing LWE search to LWE decision, in case of non guaranteed success}}{6}{algocf.6}}
\newlabel{algo:LWE2}{{6}{6}{LWE search to Decision reduction\relax }{algocf.6}{}}
