\relax 
\providecommand\HyperFirstAtBeginDocument{\AtBeginDocument}
\HyperFirstAtBeginDocument{\ifx\hyper@anchor\@undefined
\global\let\oldcontentsline\contentsline
\gdef\contentsline#1#2#3#4{\oldcontentsline{#1}{#2}{#3}}
\global\let\oldnewlabel\newlabel
\gdef\newlabel#1#2{\newlabelxx{#1}#2}
\gdef\newlabelxx#1#2#3#4#5#6{\oldnewlabel{#1}{{#2}{#3}}}
\AtEndDocument{\ifx\hyper@anchor\@undefined
\let\contentsline\oldcontentsline
\let\newlabel\oldnewlabel
\fi}
\fi}
\global\let\hyper@last\relax 
\gdef\HyperFirstAtBeginDocument#1{#1}
\providecommand\HyField@AuxAddToFields[1]{}
\@writefile{toc}{\contentsline {section}{\numberline {1}CCA Security}{1}{section.1}}
\newlabel{eq:res}{{1}{1}{CCA Security\relax }{equation.1.1}{}}
\@writefile{toc}{\contentsline {section}{\numberline {2}Homomorphic Encryption}{2}{section.2}}
\newlabel{eq:1a}{{10}{2}{Homomorphic Encryption\relax }{equation.2.2}{}}
\newlabel{eq:1b}{{11}{2}{Homomorphic Encryption\relax }{equation.2.11}{}}
\@writefile{toc}{\contentsline {section}{\numberline {3}Collision Resistant Hash Functions}{3}{section.3}}
\@writefile{toc}{\contentsline {section}{\numberline {4}Strong one-time signature scheme}{3}{section.4}}
\@writefile{toc}{\contentsline {section}{\numberline {5}Incremental cryptography}{3}{section.5}}
