\relax 
\providecommand\HyperFirstAtBeginDocument{\AtBeginDocument}
\HyperFirstAtBeginDocument{\ifx\hyper@anchor\@undefined
\global\let\oldcontentsline\contentsline
\gdef\contentsline#1#2#3#4{\oldcontentsline{#1}{#2}{#3}}
\global\let\oldnewlabel\newlabel
\gdef\newlabel#1#2{\newlabelxx{#1}#2}
\gdef\newlabelxx#1#2#3#4#5#6{\oldnewlabel{#1}{{#2}{#3}}}
\AtEndDocument{\ifx\hyper@anchor\@undefined
\let\contentsline\oldcontentsline
\let\newlabel\oldnewlabel
\fi}
\fi}
\global\let\hyper@last\relax 
\gdef\HyperFirstAtBeginDocument#1{#1}
\providecommand\HyField@AuxAddToFields[1]{}
\@writefile{toc}{\contentsline {section}{\numberline {1}Shannon's Theorem}{1}{section.1}}
\@writefile{toc}{\contentsline {section}{\numberline {2}Definitions of Security}{2}{section.2}}
\newlabel{def:stat_sec}{{1}{2}{Definitions of Security\relax }{theorem.1}{}}
\newlabel{def:stat_sec_2}{{2}{2}{Definitions of Security\relax }{theorem.2}{}}
\@writefile{toc}{\contentsline {section}{\numberline {3}OWFs and Secure Encryption}{2}{section.3}}
\newlabel{def:mess_indi}{{3}{2}{OWFs and Secure Encryption\relax }{theorem.3}{}}
\newlabel{def:ows}{{4}{3}{OWFs and Secure Encryption\relax }{theorem.4}{}}
\@writefile{toc}{\contentsline {section}{\numberline {4}One-Way Functions}{4}{section.4}}
\@writefile{toc}{\contentsline {section}{\numberline {5}Number theory}{5}{section.5}}
\newlabel{eq:comp_ind}{{7}{5}{Number theory\relax }{equation.5.7}{}}
